<?xml version="1.0" encoding="UTF-8"?>
<svg width="21px" height="26px" viewBox="0 0 21 26" version="1.1" xmlns="http://www.w3.org/2000/svg" xmlns:xlink="http://www.w3.org/1999/xlink">
    <!-- Generator: Sketch 63.1 (92452) - https://sketch.com -->
    <title>school</title>
    <desc>Created with Sketch.</desc>
    <g id="Page-1" stroke="none" stroke-width="1" fill="none" fill-rule="evenodd">
        <g id="Details" transform="translate(-972.000000, -351.000000)" fill="#000000" fill-rule="nonzero">
            <g id="school" transform="translate(972.000000, 351.000000)">
                <path d="M16.6004502,2.95000004 L13.2397002,2.95000004 C13.1114502,1.30200002 11.7304002,0 10.0500001,0 C8.36965012,0 6.9886001,1.30200002 6.8603001,2.95000004 L3.49955005,2.95000004 C1.59720002,2.95000004 0.0495500007,4.49765007 0.0495500007,6.4000001 L0.0495500007,10.0500001 C0.0495500007,10.9116002 0.536600008,11.6612502 1.24955002,12.0391502 L1.24955002,22.0500003 C1.24955002,24.0074504 2.84210004,25.6000004 4.79955007,25.6000004 L15.3004002,25.6000004 C17.2578503,25.6000004 18.8504003,24.0074504 18.8504003,22.0500003 L18.8504003,12.0391002 C19.5634003,11.6612002 20.0504003,10.9115502 20.0504003,10.0500001 L20.0504003,6.4000001 C20.0504003,4.49765007 18.5028003,2.95000004 16.6004502,2.95000004 Z M15.3504502,21.0499503 L15.3504502,20.3000002 C15.3504502,19.0593503 14.3411002,18.0500003 13.1004502,18.0500003 L6.9995501,18.0500003 C5.75890009,18.0500003 4.74955004,19.0593503 4.74955004,20.3000002 L4.74955004,21.0499503 L2.74955004,21.0499503 L2.74955004,12.3000002 L5.60040008,12.3000002 L5.60040008,15.4000002 C5.60040008,15.8142002 5.93620009,16.1500002 6.35040009,16.1500002 C6.7646001,16.1500002 7.10040011,15.8142002 7.10040011,15.4000002 L7.10040011,12.3000002 L13.0003502,12.3000002 L13.0003502,15.4000002 C13.0003502,15.8142002 13.3361502,16.1500002 13.7503502,16.1500002 C14.1645502,16.1500002 14.5003502,15.8142002 14.5003502,15.4000002 L14.5003502,12.3000002 L17.3504003,12.3000002 L17.3504003,21.0499503 L15.3504502,21.0499503 Z M13.8504502,21.0499503 L6.24955009,21.0499503 L6.24955009,20.3000003 C6.24955009,19.8864503 6.5860001,19.5500003 6.9995501,19.5500003 L13.1004502,19.5500003 C13.5140002,19.5500003 13.8504502,19.8864503 13.8504502,20.3000003 L13.8504502,21.0499503 Z M10.0500001,1.50000002 C10.9026002,1.50000002 11.6104002,2.13070003 11.7318502,2.95000004 L8.36815012,2.95000004 C8.48960013,2.13070003 9.19745014,1.50000002 10.0500001,1.50000002 Z M1.54955002,6.4000001 C1.54955002,5.32475008 2.42430004,4.45000007 3.49955005,4.45000007 L16.6004502,4.45000007 C17.6757003,4.45000007 18.5504503,5.32475008 18.5504503,6.4000001 L18.5504503,10.0500001 C18.5504503,10.4635502 18.2140003,10.8000002 17.8004503,10.8000002 L14.5004002,10.8000002 L14.5004002,9.30000014 C14.5004002,8.88580013 14.1646002,8.55000013 13.7504002,8.55000013 C13.3362002,8.55000013 13.0004002,8.88580013 13.0004002,9.30000014 L13.0004002,10.8000002 L7.10045011,10.8000002 L7.10045011,9.30000014 C7.10045011,8.88580013 6.7646501,8.55000013 6.35045009,8.55000013 C5.93625009,8.55000013 5.60045008,8.88580013 5.60045008,9.30000014 L5.60045008,10.8000002 L2.29955003,10.8000002 C1.88600003,10.8000002 1.54955002,10.4635502 1.54955002,10.0500001 L1.54955002,6.4000001 Z M15.3004502,24.1000004 L4.79960007,24.1000004 C3.84165006,24.1000004 3.03530005,23.4394503 2.81155004,22.5499503 L17.2885503,22.5499503 C17.0647503,23.4394503 16.2584002,24.1000004 15.3004502,24.1000004 Z" id="Shape"></path>
            </g>
        </g>
    </g>
</svg>