<?xml version="1.0" encoding="UTF-8"?>
<svg width="101px" height="102px" viewBox="0 0 101 102" version="1.1" xmlns="http://www.w3.org/2000/svg" xmlns:xlink="http://www.w3.org/1999/xlink">
    <!-- Generator: Sketch 63.1 (92452) - https://sketch.com -->
    <title>Group 9</title>
    <desc>Created with Sketch.</desc>
    <defs>
        <circle id="path-1" cx="37.5" cy="37.5" r="37.5"></circle>
        <filter x="-35.3%" y="-18.0%" width="170.7%" height="172.0%" filterUnits="objectBoundingBox" id="filter-2">
            <feOffset dx="0" dy="14" in="SourceAlpha" result="shadowOffsetOuter1"></feOffset>
            <feGaussianBlur stdDeviation="6.5" in="shadowOffsetOuter1" result="shadowBlurOuter1"></feGaussianBlur>
            <feColorMatrix values="0 0 0 0 0.879253831   0 0 0 0 0.889573508   0 0 0 0 0.910212862  0 0 0 0.714570586 0" type="matrix" in="shadowBlurOuter1"></feColorMatrix>
        </filter>
    </defs>
    <g id="Page-1" stroke="none" stroke-width="1" fill="none" fill-rule="evenodd">
        <g id="vendors" transform="translate(-364.000000, -3215.000000)">
            <g id="Group-9" transform="translate(377.000000, 3215.000000)">
                <g id="Oval">
                    <use fill="black" fill-opacity="1" filter="url(#filter-2)" xlink:href="#path-1"></use>
                    <use fill="#FFFFFF" fill-rule="evenodd" xlink:href="#path-1"></use>
                </g>
                <g id="money-(10)" transform="translate(19.000000, 19.000000)" fill="#000000" fill-rule="nonzero">
                    <path d="M25.3793984,24.1476641 C24.4790508,24.1476641 23.7465859,23.5136875 23.7465859,22.7344648 C23.7465859,21.955168 24.4790508,21.3211914 25.3793984,21.3211914 C26.2797461,21.3211914 27.0122109,21.955168 27.0122109,22.7344648 C27.0122109,23.1443008 27.3445625,23.4766523 27.7543984,23.4766523 C28.1642344,23.4766523 28.4965859,23.1443008 28.4965859,22.7344648 C28.4965859,21.3744063 27.4832031,20.2308438 26.1215859,19.9204609 L26.1215859,19.5344492 C26.1215859,19.1246133 25.7892344,18.7922617 25.3793984,18.7922617 C24.9695625,18.7922617 24.6372109,19.1246133 24.6372109,19.5344492 L24.6372109,19.9204609 C23.2755937,20.2308438 22.2622109,21.3744062 22.2622109,22.7344648 C22.2622109,24.3321719 23.6605664,25.6320391 25.3793984,25.6320391 C26.2797461,25.6320391 27.0122109,26.2660156 27.0122109,27.0453125 C27.0122109,27.8246094 26.2797461,28.4585859 25.3793984,28.4585859 C24.4790508,28.4585859 23.7465859,27.8246094 23.7465859,27.0453125 C23.7465859,26.6354766 23.4142344,26.303125 23.0043984,26.303125 C22.5945625,26.303125 22.2622109,26.6354766 22.2622109,27.0453125 C22.2622109,28.4053711 23.2755937,29.5489336 24.6372109,29.8593164 L24.6372109,30.1799414 C24.6372109,30.5897773 24.9695625,30.9221289 25.3793984,30.9221289 C25.7892344,30.9221289 26.1215859,30.5897773 26.1215859,30.1799414 L26.1215859,29.8593164 C27.4832031,29.5489336 28.4965859,28.4053711 28.4965859,27.0453125 C28.4965859,25.4475313 27.0982305,24.1476641 25.3793984,24.1476641 Z" id="Path"></path>
                    <path d="M33.5084297,19.7329844 C32.5389102,18.2222617 31.1729883,17.0133867 29.5583594,16.237207 C29.1888242,16.0595273 28.7453672,16.2150898 28.5678359,16.5845508 C28.3902305,16.9540117 28.5457188,17.3973945 28.9151797,17.575 C31.7288867,18.9275625 33.546875,21.8175664 33.546875,24.9375742 C33.546875,26.2726211 33.2177891,27.5966094 32.5953164,28.7665937 C32.402793,29.1284102 32.5400234,29.5778789 32.9019141,29.7704023 C33.0129453,29.8294805 33.1322891,29.8575352 33.2498516,29.8575352 C33.5154062,29.8575352 33.7722773,29.7145898 33.9057227,29.4638047 C34.6420469,28.0800703 35.03125,26.5148711 35.03125,24.9375742 C35.03125,23.0850742 34.504668,21.2853437 33.5084297,19.7329844 Z" id="Path"></path>
                    <path d="M26.546043,15.2892109 L26.4960938,15.2891367 C26.0862578,15.2891367 25.7539062,15.6214141 25.7539062,16.0313242 C25.7539062,16.4412344 26.0862578,16.7735117 26.4960938,16.7735117 L26.5390664,16.7735859 C26.5402539,16.7735859 26.5413672,16.7735859 26.5426289,16.7735859 C26.9509062,16.7735859 27.2828125,16.4436094 27.28475,16.0348867 C27.2865977,15.6249766 26.9558789,15.2911406 26.546043,15.2892109 Z" id="Path"></path>
                    <path d="M21.8505195,32.3001484 C19.0368867,30.9475117 17.2188984,28.0575078 17.2188984,24.9375742 C17.2188984,23.6025273 17.5479844,22.2785391 18.170457,21.1085547 C18.3629805,20.7467383 18.22575,20.2972695 17.8638594,20.1047461 C17.5021172,19.9122227 17.0525,20.0494531 16.8600508,20.4113438 C16.1237266,21.7951523 15.7345234,23.3602773 15.7345234,24.9375742 C15.7345234,26.7900742 16.2611055,28.5897305 17.2573438,30.1421641 C18.2268633,31.6528867 19.5927852,32.8617617 21.2074141,33.6380156 C21.3110977,33.6878906 21.4206445,33.711418 21.5284844,33.711418 C21.804875,33.711418 22.0701328,33.556375 22.1979375,33.2906719 C22.3753945,32.9212109 22.2199805,32.4777539 21.8505195,32.3001484 Z" id="Path"></path>
                    <path d="M24.2696797,33.1016367 L24.226707,33.101487 C23.8149414,33.1007461 23.4830352,33.4302031 23.4811713,33.8401875 C23.47925,34.2500977 23.8101172,34.5839336 24.2199531,34.5858633 L24.2696797,34.5860117 C24.6795156,34.5860117 25.0118672,34.2536602 25.0118672,33.8438242 C25.0118672,33.4339883 24.6795156,33.1016367 24.2696797,33.1016367 Z" id="Path"></path>
                    <path d="M28.7530117,12.7780938 C28.6626875,12.5628594 28.5520273,12.3600195 28.4232578,12.171875 L30.3554688,12.171875 C32.2379531,12.171875 33.7695312,10.6402969 33.7695312,8.7578125 C33.7695312,6.87532813 32.2379531,5.34375 30.3554688,5.34375 L24.4120313,5.34375 C24.7898789,4.79438281 25.0117188,4.12975391 25.0117188,3.4140625 C25.0117188,1.53157813 23.4801406,0 21.5976563,0 L3.4140625,0 C1.53157813,0 0,1.53157813 0,3.4140625 C0,5.29654688 1.53157813,6.828125 3.4140625,6.828125 L9.3575,6.828125 C8.97965234,7.37749219 8.7578125,8.04212109 8.7578125,8.7578125 C8.7578125,9.47350391 8.97957812,10.1381328 9.3575,10.6875 L7.421875,10.6875 C5.53939063,10.6875 4.0078125,12.2190781 4.0078125,14.1015625 C4.0078125,15.182707 4.51353906,16.1474766 5.30033203,16.7734375 C4.51353906,17.3993984 4.0078125,18.364168 4.0078125,19.4453125 C4.0078125,20.526457 4.51353906,21.4912266 5.30033203,22.1171875 C4.51353906,22.7431484 4.0078125,23.707918 4.0078125,24.7890625 C4.0078125,25.870207 4.51353906,26.8349766 5.30033203,27.4609375 C4.51353906,28.0868984 4.0078125,29.051668 4.0078125,30.1328125 C4.0078125,32.0152969 5.53939063,33.546875 7.421875,33.546875 L16.1685547,33.546875 C18.47275,36.011457 21.7506953,37.5547617 25.3828867,37.5547617 C32.3400039,37.5547617 38.0000742,31.8946914 38.0000742,24.9375742 C38.0000742,19.14725 34.0790977,14.2561602 28.7530117,12.7780938 Z M30.3554688,6.828125 C31.419543,6.828125 32.2851562,7.6938125 32.2851562,8.7578125 C32.2851562,9.8218125 31.419543,10.6875 30.3554688,10.6875 L25.6054688,10.6875 L12.171875,10.6875 C11.1078008,10.6875 10.2421875,9.8218125 10.2421875,8.7578125 C10.2421875,7.6938125 11.1078008,6.828125 12.171875,6.828125 L30.3554688,6.828125 Z M3.4140625,5.34375 C2.34998828,5.34375 1.484375,4.4780625 1.484375,3.4140625 C1.484375,2.3500625 2.34998828,1.484375 3.4140625,1.484375 L21.5976562,1.484375 C22.6617305,1.484375 23.5273438,2.3500625 23.5273438,3.4140625 C23.5273438,4.4780625 22.6617305,5.34375 21.5976562,5.34375 L3.4140625,5.34375 Z M7.421875,12.171875 L25.6054688,12.171875 C25.9044219,12.171875 26.1906836,12.2413438 26.4474805,12.3657344 C26.0964258,12.3362695 25.7415117,12.3203867 25.3828867,12.3203867 C21.8986875,12.3203867 18.7399375,13.7401172 16.4544453,16.03125 L7.421875,16.03125 C6.357875,16.03125 5.4921875,15.1655625 5.4921875,14.1015625 C5.4921875,13.0375625 6.357875,12.171875 7.421875,12.171875 Z M7.421875,17.515625 L15.1862695,17.515625 C14.3437383,18.6699492 13.6923203,19.9718945 13.278625,21.375 L7.421875,21.375 C6.35780078,21.375 5.4921875,20.5093867 5.4921875,19.4453125 C5.4921875,18.3813125 6.35780078,17.515625 7.421875,17.515625 Z M7.421875,22.859375 L12.9378125,22.859375 C12.8252227,23.5357305 12.7656992,24.22975 12.7656992,24.9375742 C12.7656992,25.5421602 12.8094141,26.1366523 12.8920195,26.71875 L7.421875,26.71875 C6.35780078,26.71875 5.4921875,25.8531367 5.4921875,24.7890625 C5.4921875,23.7249883 6.35780078,22.859375 7.421875,22.859375 Z M7.421875,32.0625 C6.35780078,32.0625 5.4921875,31.1968867 5.4921875,30.1328125 C5.4921875,29.0687383 6.35780078,28.203125 7.421875,28.203125 L13.1950547,28.203125 C13.5695625,29.5994023 14.1779336,30.9006797 14.9757852,32.0625 L7.421875,32.0625 Z M25.3828867,36.0703867 C19.2442539,36.0703867 14.2500742,31.076207 14.2500742,24.9375742 C14.2500742,18.7989414 19.2442539,13.8047617 25.3828867,13.8047617 C31.5215195,13.8047617 36.5156992,18.7989414 36.5156992,24.9375742 C36.5156992,31.076207 31.5215195,36.0703867 25.3828867,36.0703867 Z" id="Shape"></path>
                </g>
            </g>
        </g>
    </g>
</svg>