<?xml version="1.0" encoding="UTF-8"?>
<svg width="51px" height="52px" viewBox="0 0 51 52" version="1.1" xmlns="http://www.w3.org/2000/svg" xmlns:xlink="http://www.w3.org/1999/xlink">
    <!-- Generator: Sketch 63.1 (92452) - https://sketch.com -->
    <title>calendar</title>
    <desc>Created with Sketch.</desc>
    <g id="Page-1" stroke="none" stroke-width="1" fill="none" fill-rule="evenodd">
        <g id="Affiliate" transform="translate(-751.000000, -1103.000000)" fill-rule="nonzero">
            <g id="calendar" transform="translate(751.000000, 1103.000000)">
                <g id="Group" transform="translate(1.080000, 5.520000)">
                    <path d="M48.0050426,11.0938806 L48.0050426,40.4346022 C48.0050426,42.8583623 46.0401625,44.8231224 43.6165224,44.8231224 L4.49556025,44.8231224 C2.07180011,44.8231224 0.107040006,42.8582423 0.107040006,40.4346022 L0.107040006,11.0938806 L48.0050426,11.0938806 Z M40.7325622,22.2534012 C40.7328022,20.2002011 39.0866421,18.525961 37.033682,18.491761 C34.9564819,18.457081 33.2444418,20.1129611 33.2098818,22.1901612 C33.1752018,24.2673613 34.8310819,25.9792814 36.908282,26.0139614 C38.9854821,26.0486414 40.6975222,24.3927613 40.7320822,22.3155612 C40.7324422,22.2948012 40.7325622,22.2741612 40.7325622,22.2534012 Z M40.7325622,33.2875218 C40.7674822,31.2795617 39.1680021,29.6235616 37.160162,29.5886416 C37.118042,29.5879216 37.075802,29.5879216 37.033682,29.5886416 C35.0257219,29.5537216 33.3697218,31.1532017 33.3348018,33.1610418 C33.3340818,33.2031618 33.3340818,33.2454018 33.3348018,33.2875218 C33.3682818,35.3163619 35.0049619,36.952922 37.033682,36.986402 C39.0765621,36.986402 40.7325622,35.3304019 40.7325622,33.2875218 L40.7325622,33.2875218 Z M27.7549215,22.2534012 C27.7551615,20.2002011 26.1090014,18.525961 24.0560413,18.491761 C21.9788412,18.457081 20.2669211,20.1129611 20.2322411,22.1901612 C20.1975611,24.2673613 21.8534412,25.9792814 23.9306413,26.0139614 C26.0078414,26.0486414 27.7197615,24.3927613 27.7544415,22.3155612 C27.7548015,22.2948012 27.7549215,22.2741612 27.7549215,22.2534012 Z M27.7549215,33.2875218 C27.7898415,31.2795617 26.1903614,29.6235616 24.1825213,29.5886416 C24.1404013,29.5879216 24.0981613,29.5879216 24.0560413,29.5886416 C22.0480812,29.5537216 20.3920811,31.1532017 20.3571611,33.1610418 C20.3564411,33.2031618 20.3564411,33.2454018 20.3571611,33.2875218 C20.3907611,35.3163619 22.0273212,36.952922 24.0560413,36.986402 C26.0989214,36.986402 27.7549215,35.3304019 27.7549215,33.2875218 Z M14.7772808,22.2534012 C14.7772808,20.2105211 13.1211607,18.554521 11.0784006,18.554521 C9.03564049,18.554521 7.3795204,20.2106411 7.3795204,22.2534012 C7.3795204,24.2962813 9.03564049,25.9522814 11.0785206,25.9522814 C13.1214007,25.9522814 14.7772808,24.2962813 14.7772808,22.2534012 L14.7772808,22.2534012 Z M14.7772808,33.2875218 C14.7764408,31.2446417 13.1197207,29.5892416 11.0768406,29.5900813 C9.03516049,29.5909216 7.3802404,31.2458417 7.3794004,33.2875218 C7.41300041,35.3163619 9.04956049,36.952922 11.0782806,36.986402 C13.1212807,36.986402 14.7772808,35.3304019 14.7772808,33.2875218 L14.7772808,33.2875218 Z" id="Shape" fill="#D4E1F4"></path>
                    <path d="M35.717042,0.0597600033 L43.6165224,0.0597600033 C46.0402825,0.0597600033 48.0050426,2.02464011 48.0050426,4.44828024 L48.0050426,11.0938806 L0.106920006,11.0938806 L0.106920006,4.44828024 C0.106920006,2.02452011 2.07180011,0.0597600033 4.49544025,0.0597600033 L35.717042,0.0597600033 Z" id="Path" fill="#5591FF"></path>
                    <g transform="translate(7.320000, 18.480001)" fill="#5591FF" id="Oval">
                        <circle cx="29.7136816" cy="3.77340021" r="3.6988802"></circle>
                        <circle cx="29.7136816" cy="14.8075208" r="3.6988802"></circle>
                        <circle cx="16.7360409" cy="3.77340021" r="3.6988802"></circle>
                        <circle cx="16.7360409" cy="14.8075208" r="3.6988802"></circle>
                        <circle cx="3.75840021" cy="3.77340021" r="3.6988802"></circle>
                        <circle cx="3.75840021" cy="14.8075208" r="3.6988802"></circle>
                    </g>
                </g>
                <g id="Group" fill="#083863">
                    <path d="M44.6965224,4.45128024 L38.3017221,4.45128024 L38.3017221,1.25388007 C38.3017221,0.561360031 37.7403621,0 37.047842,0 C36.355322,0 35.793962,0.561360031 35.793962,1.25388007 L35.793962,4.45128024 L14.4780008,4.45128024 L14.4780008,1.25388007 C14.4780008,0.561360031 13.9166408,0 13.2241207,0 C12.5316007,0 11.9702407,0.561360031 11.9702407,1.25388007 L11.9702407,4.45128024 L5.5754403,4.45128024 C2.59860014,4.38120024 0.128520007,6.73764037 0.0584400032,9.71460053 C0.0564000031,9.79920054 0.0564000031,9.88380054 0.0584400032,9.96840054 L0.0584400032,45.8919625 C-0.0110400006,48.9034827 2.37408013,51.4011628 5.38560029,51.4706428 C5.4488403,51.4721074 5.5122003,51.4721074 5.5755603,51.4721074 L44.6965224,51.4721074 C47.7086426,51.5071228 50.1792027,49.0940427 50.2150462,46.0819225 C50.2150462,46.0185625 50.2150462,45.9553225 50.2135227,45.8919625 L50.2135227,9.96828054 C50.2836027,6.99132038 47.9271626,4.52124025 44.9502025,4.45116024 C44.8657225,4.44924024 44.7811224,4.44924024 44.6965224,4.45128024 Z M47.7057626,45.8919625 C47.7753626,47.5178426 46.5138025,48.8923227 44.8879225,48.9620427 C44.8240824,48.9647198 44.7602424,48.9654027 44.6964024,48.9639627 L5.5755603,48.9639627 C3.94860022,49.0000827 2.60040014,47.7104426 2.56428014,46.0834825 C2.56284014,46.0196425 2.56355099,45.9558025 2.56620014,45.8919625 L2.56620014,17.616961 L47.7057626,17.616961 L47.7057626,45.8919625 Z M47.7057626,15.1092008 L2.56620014,15.1092008 L2.56620014,9.96828054 C2.49540014,8.37708046 3.7278002,7.02984038 5.31900029,6.95892038 C5.4044403,6.95508038 5.4900003,6.95508038 5.5754403,6.95892038 L11.9702407,6.95892038 L11.9702407,10.0935606 C11.9702407,10.7860806 12.5316007,11.3474406 13.2241207,11.3474406 C13.9166408,11.3474406 14.4780008,10.7860806 14.4780008,10.0935606 L14.4780008,6.95904038 L35.793962,6.95904038 L35.793962,10.0936806 C35.793962,10.7862006 36.355322,11.3475606 37.047842,11.3475606 C37.7403621,11.3475606 38.3017221,10.7862006 38.3017221,10.0936806 L38.3017221,6.95904038 L44.6965224,6.95904038 C46.2877225,6.88824038 47.6349626,8.12064044 47.7058826,9.71184053 C47.7097226,9.79728054 47.7097226,9.88284054 47.7058826,9.96828054 L47.7058826,15.1092008 L47.7057626,15.1092008 Z" id="Shape"></path>
                    <path d="M12.1584007,32.6635218 C9.42300051,32.6635218 7.20564039,30.4460417 7.20564039,27.7107615 C7.20564039,24.9753614 9.42312051,22.7580012 12.1584007,22.7580012 C14.8936808,22.7580012 17.1111609,24.9754814 17.1111609,27.7107615 C17.1111609,30.4460417 14.8938008,32.6635218 12.1584007,32.6635218 C12.1584007,32.6635218 12.1584007,32.6635218 12.1584007,32.6635218 Z M12.1584007,25.2656414 C10.8080406,25.2656414 9.71328053,26.3602814 9.71328053,27.7107615 L9.71328053,27.7107615 C9.71328053,29.0611216 10.8079206,30.1558816 12.1584007,30.1558816 C13.5087607,30.1558816 14.6035208,29.0612416 14.6035208,27.7107615 C14.6034008,26.3602814 13.5087607,25.2656414 12.1584007,25.2656414 L12.1584007,25.2656414 Z" id="Shape"></path>
                    <path d="M25.1360414,32.6635218 C22.4006412,32.6635218 20.1832811,30.4460417 20.1832811,27.7107615 C20.1832811,24.9754814 22.4007612,22.7580012 25.1360414,22.7580012 C27.8713215,22.7580012 30.0888016,24.9754814 30.0888016,27.7107615 C30.0888016,30.4460417 27.8714415,32.6635218 25.1360414,32.6635218 L25.1360414,32.6635218 Z M25.1360414,25.2656414 C23.7856813,25.2656414 22.6909212,26.3602814 22.6909212,27.7107615 C22.6909212,27.7107615 22.6909212,27.7107615 22.6909212,27.7107615 C22.6916412,29.0611216 23.7868813,30.1552816 25.1372414,30.154562 C26.4866414,30.1538416 27.5803215,29.0601616 27.5810415,27.7107615 C27.5810415,26.3602814 26.4864014,25.2656414 25.1360414,25.2656414 Z" id="Shape"></path>
                    <path d="M38.1136821,32.6635218 C35.3782819,32.6635218 33.1609218,30.4460417 33.1609218,27.7107615 C33.1609218,24.9754814 35.3784019,22.7580012 38.1136821,22.7580012 C40.8490822,22.7580012 43.0664424,24.9754814 43.0664424,27.7107615 C43.0664424,30.4460417 40.8489622,32.6635218 38.1136821,32.6635218 L38.1136821,32.6635218 Z M38.1136821,25.2656414 C36.763322,25.2656414 35.6685619,26.3602814 35.6685619,27.7107615 C35.6685619,27.7107615 35.6685619,27.7107615 35.6685619,27.7107615 C35.6685619,29.0611216 36.763202,30.1558816 38.1136821,30.1558816 C39.4640422,30.1558816 40.5588022,29.0612416 40.5588022,27.7107615 C40.5586822,26.3602814 39.4640422,25.2656414 38.1136821,25.2656414 L38.1136821,25.2656414 Z" id="Shape"></path>
                    <path d="M12.1584007,43.6976424 C9.42300051,43.6974024 7.20576039,41.4798023 7.20600039,38.7444021 C7.20624039,36.009002 9.42384051,33.7917618 12.1592407,33.7920018 C14.8946408,33.7922418 17.1118809,36.009842 17.1116409,38.7452421 C17.1116409,38.7660021 17.1115209,38.7867621 17.1112809,38.8075221 C17.1115209,41.5082423 14.9222408,43.6978824 12.2215207,43.6980024 C12.2004007,43.6980024 12.1794007,43.6978824 12.1584007,43.6976424 Z M12.1584007,36.362402 C10.8080406,36.362402 9.71328053,37.457042 9.71328053,38.8075221 C9.71328053,40.1578822 10.8079206,41.2526423 12.1584007,41.2526423 C13.5088807,41.2526423 14.6035208,40.1580022 14.6035208,38.8075221 C14.6385608,37.492202 13.6008007,36.397562 12.2856007,36.362402 C12.2431207,36.361322 12.2007607,36.361322 12.1584007,36.362402 Z" id="Shape"></path>
                    <path d="M25.1360414,43.6976424 C22.4006412,43.6974024 20.1834011,41.4798023 20.1836411,38.7444021 C20.1838811,36.009002 22.4014812,33.7917618 25.1368814,33.7920018 C27.8722815,33.7922418 30.0895216,36.009842 30.0892816,38.7452421 C30.0892816,38.7660021 30.0891616,38.7867621 30.0889216,38.8075221 C30.0891616,41.5082423 27.8998815,43.6978824 25.1991614,43.6980024 C25.1780414,43.6980024 25.1570414,43.6978824 25.1360414,43.6976424 Z M25.1360414,36.362402 C23.7856813,36.362402 22.6909212,37.457042 22.6909212,38.8075221 C22.6909212,40.1578822 23.7855613,41.2526423 25.1360414,41.2526423 C26.4865214,41.2526423 27.5811615,40.1580022 27.5811615,38.8075221 C27.6162015,37.492202 26.5784415,36.397562 25.2632414,36.362402 C25.2207614,36.361322 25.1784014,36.361322 25.1360414,36.362402 Z" id="Shape"></path>
                    <path d="M38.1136821,43.6976424 C35.3782819,43.6974024 33.1610418,41.4798023 33.1612818,38.7444021 C33.1615218,36.009002 35.3791219,33.7917618 38.1145221,33.7920018 C40.8499222,33.7922418 43.0671624,36.009842 43.0669224,38.7452421 C43.0669224,38.7660021 43.0668024,38.7867621 43.0665624,38.8075221 C43.0668024,41.5082423 40.8775222,43.6978824 38.1768021,43.6980024 C38.1556821,43.6980024 38.1346821,43.6978824 38.1136821,43.6976424 Z M38.1136821,36.362402 C36.763322,36.362402 35.6685619,37.457042 35.6685619,38.8075221 C35.6685619,40.1578822 36.763202,41.2526423 38.1136821,41.2526423 C39.4640422,41.2526423 40.5588022,40.1580022 40.5588022,38.8075221 C40.5938422,37.492202 39.5560822,36.397562 38.2408821,36.362402 C38.1984021,36.361322 38.1560421,36.361322 38.1136821,36.362402 Z" id="Shape"></path>
                </g>
            </g>
        </g>
    </g>
</svg>